Tema;Assunto;Serviço;Órgão
Acessibilidade;Acessibilidade Digital;Selo de Acessibilidade Digital;SMPED
Acessibilidade;Acessibilidade em edificações;Fiscalização de acessibilidade em edificações;CET
Acessibilidade;Acessibilidade em edificações;Fiscalização de acessibilidade em edificações;SMDHC
Acessibilidade;Acessibilidade em edificações;Fiscalização de acessibilidade em edificações;SMPR
Acessibilidade;Acessibilidade em edificações;Fiscalização de acessibilidade em edificações;SPTRANS
Acessibilidade;Guias rebaixadas;Fiscalização de rebaixamento irregular de guia para acesso de veículos;SMPR
Acessibilidade;Guias rebaixadas;Rebaixamento de guias para pedestres;CET
Acessibilidade;Guias rebaixadas;Rebaixamento de guias para pedestres;SMPR
Acessibilidade;Instalações físicas e equipamentos acessíveis;Reclamação de falta de cadeira de rodas em supermercado;SMPR
Acessibilidade;Instalações físicas e equipamentos acessíveis;Reclamação de falta de mobiliário adequado;SMPR
SAC/GRC;Agente Jovem - Denúncia;Conduta - Cadastrador;
SAC/GRC;Agente Jovem - Denúncia;Conduta - Postos de Atendimento;
SAC/GRC;Alistamento e Serviço Militar;Elogios;
SAC/GRC;Alistamento e Serviço Militar;Reclamações;
SAC/GRC;Alistamento e Serviço Militar;Sugestões;
SAC/GRC;Animais/Carrapatos;Reclamação de carrapatos;COVISA-UVIS
SAC/GRC;Animais/Pulgas;Reclamação de pulgas;COVISA-UVIS
SAC/GRC;Animais/barata;Reclamação de baratas;COVISA-UVIS
SAC/GRC;Atendimento - SF;Elogio;
SAC/GRC;Atendimento - SF;Sugestão;
SAC/GRC;BPC - Denúncia;Conduta - Cadastrador;
SAC/GRC;BPC - Denúncia;Conduta - Postos de Atendimento;
SAC/GRC;BPC - Denúncia;Denúncia de Recebimento Indevido;
SAC/GRC;CCM;Cancelamento do CCM;SF
SAC/GRC;CCM;Inscrição Online (pessoa física);SF
SAC/GRC;CCM;Que documentação adicional deve ser apresentada para a reativação de inscrição?;
SAC/GRC;CET / Circulação de Pedestre;Dificuldade de circulação na calçada;CET
SAC/GRC;CET / Escola;Falta de sinalização de existência de escola e de escolares;CET
SAC/GRC;CET / Faixa reversível;Faixa reversível;CET
SAC/GRC;CET / Veículo com placa abandonado;Veículo com placa abandonado na via;CET
SAC/GRC;CET / Veículo com placa abandonado;Veículo com placa abandonado sobre a calçada;CET
SAC/GRC;CET / Veículo com placa abandonado;Veículo com placa abandonado sobre a calçada;SMPR
SAC/GRC;Condições Sanitárias Inadequadas;Caixa de Água;COVISA-UVIS
SAC/GRC;Condições Sanitárias Inadequadas;Higiene dos Alimentos;COVISA-UVIS
SAC/GRC;Condições Sanitárias Inadequadas;Placas;COVISA-UVIS
SAC/GRC;Condições Sanitárias Inadequadas;Placas;SMPR
SAC/GRC;Construção de passarelas;Construção de pinguela / ponte;
SAC/GRC;Construção de passarelas;Construção/reforma de passarela;
SAC/GRC;Creches;Vaga em creche;
SAC/GRC;Dengue (Mosquito Aedes aegypti);Outros: especificar o tipo de imóvel e o(s) local(is) que estão acumulando água parada;
SAC/GRC;Denúncia sobre Vegetação;Corte e poda;SMPR
SAC/GRC;Denúncia sobre Vegetação;Corte e poda;SVMA
SAC/GRC;Edificação;Vistoria técnica em edificação;
SAC/GRC;Elevador de Passageiro/Carga,Escada Rolante Etc;Infiltração d´água na casa de máquina/caixa/poço do elevador;
SAC/GRC;Funcionario;Medicamentos para servidor publico municipal;
SAC/GRC;Guarda Civil Metropolitana;Atendimento Emergencial;GCM
SAC/GRC;Guias/rebaixamento para acessibilidade;Rebaixamento de guias - informar o percurso;
SAC/GRC;Guias/sarjetas;Construção/reforma/reconstrução de guias/sarjetas;
SAC/GRC;Guias/sarjetas;Construção/reforma/reconstrução de sarjetões;
SAC/GRC;IPTU;2ª Via;
SAC/GRC;IPTU;Atualização de Dados Cadastrais;
SAC/GRC;IPTU;Consulta a Débito;
SAC/GRC;IPTU;Devolução de Valores;
SAC/GRC;IPTU;Duplicidade;
SAC/GRC;IPTU;Isenção para Aposentados;
SAC/GRC;IPTU;Valor;
SAC/GRC;ISS;Onde posso pagar o ISS?;
SAC/GRC;ISS;Quem recebe documento de arrecadação de ISS pelos correios?;
SAC/GRC;Iluminacao - Fio faiscando;Fio faiscando;
SAC/GRC;Jardinagem (poda, corte mato);Corte irregular de árvore;
SAC/GRC;Lixo / Limpeza;Colocação de placa Proibido jogar lixo;SMPR
SAC/GRC;Lixo / Limpeza;Colocação de placa Proibido jogar lixo;
SAC/GRC;Lixo / Limpeza;Informações sobre frequência de Varrição;
SAC/GRC;Lixo / Limpeza;Instalação de caçambas;
SAC/GRC;Lixo / Limpeza;Plano de Varrição;
SAC/GRC;Lixo/Limpeza - Queixas/Denuncias;Lavar/Reparar veiculo em via publica;
SAC/GRC;Mananciais-Oper.Defesa Águas/Áreas Verdes-Denúncia;Aterro/desbarrancamento próximo a córrego/represa/área verde;SVMA
SAC/GRC;Meio Ambiente;Corte e Poda de Vegetação - Informações;SVMA
SAC/GRC;NF Paulistana (Comunicação de não conversão – RPS);Comunicação de não conversão de RPS;
SAC/GRC;PPI;Criação de Senha Web;SF
SAC/GRC;PPI;Criação de Senha Web;
SAC/GRC;PROGRAMA NOTA FISCAL PAULISTANA - N.F. DE SERVIÇOS ELETRÔNICA - NFS-E;Cancelamento de Nota Fiscal;
SAC/GRC;PROGRAMA NOTA FISCAL PAULISTANA - N.F. DE SERVIÇOS ELETRÔNICA - NFS-E;Emissão de Nota Fiscal;SF
SAC/GRC;PROGRAMA NOTA FISCAL PAULISTANA - N.F. DE SERVIÇOS ELETRÔNICA - NFS-E;Emissão de Nota Fiscal;
SAC/GRC;Permissionárias;Obras de Manutenção;
SAC/GRC;Processo Encerrado/Solicitação Vistas/Cópias;Imóveis com número de Processo;SMG
SAC/GRC;Processo Encerrado/Solicitação Vistas/Cópias;Imóveis sem número de Processo antes de 1980;SMG
SAC/GRC;Processo Encerrado/Solicitação Vistas/Cópias;Imóveis sem número de Processo depois  de 1980;SMG
SAC/GRC;Processo Encerrado/Solicitação Vistas/Cópias;Outros;SMG
SAC/GRC;Reclamação;Reclamação para Companhia de Engenharia de Tráfego (CET);CET
SAC/GRC;Remoções diversas;Remoção de lixeira/caçamba;
SAC/GRC;Saúde;Saúde da mulher - assistência ginecológica;COVISA-UVIS
SAC/GRC;Servico funerario;Localizacao de tumulo;
SAC/GRC;Sugestão;Sugestão para Companhia de Engenharia de Tráfego (CET);CET
SAC/GRC;Transporte publico / Conduta de Trabalho;Apresentar sinais de embriaguez em serviço;
SAC/GRC;Transporte público / Conduta de Trabalho;Cobrança indevida de tarifa ou corrida;SPTRANS
SAC/GRC;Transporte público / Manutenção e Conservação;Letreiro em desacordo/ placas incorretas/ ausentes;SPTRANS
SAC/GRC;Transporte público/ Bilhete Único;Cancelamento de Cartão/Bilhete;SPTRANS
SAC/GRC;Transporte público/Outros;Conduta inadequada do oper.de veíc. difer.(táxi, escolar, fretamento);SMT/DTP
SAC/GRC;Transporte público/Outros;Fiscalização em veículos diferenciados (taxi,escolar,fretamento);SMT/DTP
SAC/GRC;Transporte público/Outros;Não concordância com normas/regulamentos da SPTrans;SPTRANS
SAC/GRC;Vistoria;Veículos - Lavagem em via pública;
SAC/GRC;Vistoria;Veículos - Sobre a calçada ou canteiro;
SAC/GRC;Vistoria/Infraestrutura;Dano a Pavimento, túneis, pontes e viadutos;
SAC/GRC;Vistoria/Limpeza;Obstruir bueiros e passagens de água pluvial;
SAC/GRC;Áreas municipais;Urbanização/reurbanização de área municipal;
SAC/GRC;Áreas municipais;Vistoria em área municipal;
SAC/GRC;Árvore(Calçada/Passeio Público);Árvore Caída;
SAC/GRC;Árvore(Praça Pública);Galhos Caídos;
Transporte;ATENDE;Reclamação de conduta de motorista do ATENDE;SPTRANS
Transporte;ATENDE;Reclamação de descumprimento de horário do ATENDE;SPTRANS
Transporte;Bilhete Único;Bilhete único vale transporte;SPTRANS
Transporte;Bilhete Único;Denúncia de ponto de venda de crédito clandestino;SPTRANS
Transporte;Bilhete Único;Denúncia de uso irregular do bilhete único especial (idoso e passageiros especiais);SPTRANS
Transporte;Bilhete Único;Erro na cobrança da integração Ônibus-Metrô-CPTM;SPTRANS
Transporte;Bilhete Único;Falha na recarga do bilhete único;SPTRANS
Transporte;Bilhete Único;Implantação de pontos de venda e recarga em estabelecimentos comerciais;SPTRANS
Transporte;Bilhete Único;Problemas no cadastro;SPTRANS
Transporte;Bilhete Único;Problemas nos postos de recarga;SPTRANS
Transporte;Bilhete Único;Reparo de catraca eletronica/ validador com falha;SPTRANS
Transporte;Carga a frete;Denúncia de irregularidades;DTP
Transporte;Carga a frete;Denúncia de irregularidades;SMT/DTP
Transporte;Conduta de trabalho do motorista, cobrador e fiscal de ônibus;Denúncia de alteração de itinerário ou ponto inicial/final;SPTRANS
Transporte;Conduta de trabalho do motorista, cobrador e fiscal de ônibus;Denúncia de conduta do motorista, cobrador ou fiscal;SPTRANS
Transporte;Conduta de trabalho do motorista, cobrador e fiscal de ônibus;Denúncia de direção inadequada ou perigosa de veículo;SPTRANS
Transporte;Conduta de trabalho do motorista, cobrador e fiscal de ônibus;Denúncia de problemas no embarque/desembarque;CET
Transporte;Conduta de trabalho do motorista, cobrador e fiscal de ônibus;Denúncia de problemas no embarque/desembarque;SMPR
Transporte;Conduta de trabalho do motorista, cobrador e fiscal de ônibus;Denúncia de problemas no embarque/desembarque;SPTRANS
Transporte;Conduta de trabalho do motorista, cobrador e fiscal de ônibus;Elogio ao motorista, cobrador ou fiscal;SPTRANS
Transporte;Linhas e itinerários de ônibus;Alteração de itinerário ou ponto inicial/final;SPTRANS
Transporte;Linhas e itinerários de ônibus;Criação de partida em horário específico;SPTRANS
Transporte;Linhas e itinerários de ônibus;Criação/reativação de linha de ônibus;SPTRANS
Transporte;Linhas e itinerários de ônibus;Denúncia de veículo clandestino ou não credenciado;SPTRANS
Transporte;Linhas e itinerários de ônibus;Inclusão de veículo adaptado na linha;SPTRANS
Transporte;Linhas e itinerários de ônibus;Plano emergencial;SPTRANS
Transporte;Linhas e itinerários de ônibus;Reclamação de demora na partida do ônibus;SPTRANS
Transporte;Linhas e itinerários de ônibus;Reclamação de descumprimento de horário de veículos adaptados;SPTRANS
Transporte;Linhas e itinerários de ônibus;Reclamação de descumprimento de partida no ponto inicial/final;SPTRANS
Transporte;Linhas e itinerários de ônibus;Reclamação de falta de comunicado nos ônibus;SPTRANS
Transporte;Linhas e itinerários de ônibus;Reclamação de intervalo excessivo da linha;SPTRANS
Transporte;Linhas e itinerários de ônibus;Reclamação de ônibus com superlotação;SPTRANS
Transporte;Manutenção e conservação de ônibus;Limpeza do ônibus;SPTRANS
Transporte;Manutenção e conservação de ônibus;Manutenção do veículo em geral;SPTRANS
Transporte;Manutenção e conservação de ônibus;Reparo de catraca eletronica/ validador com falha;SPTRANS
Transporte;Manutenção e conservação de ônibus;Reparo de problemas mecânicos;SPTRANS
Transporte;Moto-frete;Denúncia de conduta ou postura do condutor;DTP
Transporte;Moto-frete;Denúncia de conduta ou postura do condutor;SMT/DTP
Transporte;Moto-frete;Reclamação da conservação e manutenção da moto;SMT/DTP
Transporte;Olho Vivo;Reclamação de problemas no olho vivo;SMPR
Transporte;Olho Vivo;Reclamação de problemas no olho vivo;SPTRANS
Transporte;Olho Vivo;Sugestões e elogios;SPTRANS
Transporte;Pontos de ônibus;Implantação de abrigo ou ponto de ônibus;SPTRANS
Transporte;Pontos de ônibus;Manutenção, conserto e limpeza de ponto de ônibus;CET
Transporte;Pontos de ônibus;Manutenção, conserto e limpeza de ponto de ônibus;SMPR
Transporte;Pontos de ônibus;Manutenção, conserto e limpeza de ponto de ônibus;SMS
Transporte;Pontos de ônibus;Manutenção, conserto e limpeza de ponto de ônibus;SPOBRAS
Transporte;Pontos de ônibus;Manutenção, conserto e limpeza de ponto de ônibus;SPTRANS
Transporte;Pontos de ônibus;Reativação de um abrigo ou ponto que foi extinto;SPTRANS
Transporte;Pontos de ônibus;Reimplantação ou substituição de um ponto de ônibus do modelo antigo por um equipamento do modelo novo;SPOBRAS
Transporte;Pontos de ônibus;Reimplantação ou substituição de um ponto de ônibus do modelo antigo por um equipamento do modelo novo;SPTRANS
Transporte;Pontos de ônibus;Remanejamento de ponto de ônibus;SMPR
Transporte;Pontos de ônibus;Remanejamento de ponto de ônibus;SPTRANS
Transporte;SPTrans;Dificuldade de contato telefônico com a SPTrans;SPTRANS
Transporte;SPTrans;Elogio à empresa de ônibus;SPTRANS
Transporte;SPTrans;Sugestões;SPTRANS
Transporte;Taxi / Aplicativos;Achados e Perdidos;DTP
Transporte;Taxi / Aplicativos;Achados e Perdidos;SMT/DTP
Transporte;Taxi / Aplicativos;Denúncia de conduta ou postura do condutor;DTP
Transporte;Taxi / Aplicativos;Denúncia de conduta ou postura do condutor;SMT/DTP
Transporte;Taxi / Aplicativos;Denúncia de veículo clandestino ou de problemas no transporte;DTP
Transporte;Taxi / Aplicativos;Denúncia de veículo clandestino ou de problemas no transporte;SMT/DTP
Transporte;Taxi / Aplicativos;Denúncia sobre cobrança;DTP
Transporte;Taxi / Aplicativos;Denúncia sobre cobrança;SMT/DTP
Transporte;Taxi / Aplicativos;Elogio ao condutor;DTP
Transporte;Taxi / Aplicativos;Elogio ao condutor;SMT/DTP
Transporte;Taxi / Aplicativos;Reclamação da conservação e manutenção do veículo;DTP
Transporte;Taxi / Aplicativos;Reclamação da conservação e manutenção do veículo;SMT/DTP
Transporte;Taxi / Aplicativos;Reclamação de desobediência ao regulamento de Ponto de Taxi;DTP
Transporte;Taxi / Aplicativos;Reclamação de desobediência ao regulamento de Ponto de Taxi;SMT/DTP
Transporte;Taxi / Aplicativos;Suporte Técnico ao SPTaxi;SMIT
Transporte;Taxi e Aplicativos;Reclamação de conduta inadequada do motorista;SMT/DTP
Transporte;Terminal, corredor e estação;Painel de mensagens variáveis (PMV);SPTRANS
Transporte;Terminal, corredor e estação;Reclamação de falta de limpeza;SMPR
Transporte;Terminal, corredor e estação;Reclamação de falta de limpeza;SPTRANS
Transporte;Terminal, corredor e estação;Reclamação de filas e tumulto;SMPR
Transporte;Terminal, corredor e estação;Reclamação de filas e tumulto;SPTRANS
Transporte;Terminal, corredor e estação;Reclamação de sinalização inadequada;CET
Transporte;Terminal, corredor e estação;Reclamação de sinalização inadequada;SPTRANS
Transporte;Transporte Escolar;Denúncia de conduta ou postura do condutor;DTP
Transporte;Transporte Escolar;Denúncia de conduta ou postura do condutor;SMT/DTP
Transporte;Transporte Escolar;Denúncia ou reclamação de irregularidades ou problemas no transporte;DTP
Transporte;Transporte Escolar;Denúncia ou reclamação de irregularidades ou problemas no transporte;SMT/DTP
Transporte;Transporte Escolar;Elogio ao condutor;DTP
Transporte;Transporte Escolar;Reclamação da conservação e manutenção do veículo;DTP
Transporte;Transporte Escolar;Reclamação da conservação e manutenção do veículo;SMT/DTP
Transporte;Transporte Escolar;Reclamação do transporte escolar;SME
Transporte;Transporte Escolar;Reclamação do transporte escolar;SPTRANS
Transporte;Veículos abandonados;Remoção de veículo/carcaça abandonado na via pública;SMPR
Transporte;Ônibus fretado;Denúncia de conduta ou postura do condutor;DTP
Transporte;Ônibus fretado;Denúncia de conduta ou postura do condutor;SMT/DTP
Transporte;Ônibus fretado;Denúncia ou reclamação de irregularidades ou problemas no transporte;DTP
Transporte;Ônibus fretado;Denúncia ou reclamação de irregularidades ou problemas no transporte;SMT/DTP
Transporte;Ônibus fretado;Reclamação da conservação e manutenção do veículo;CET
Transporte;Ônibus fretado;Reclamação da conservação e manutenção do veículo;DTP
Transporte;Ônibus fretado;Reclamação da conservação e manutenção do veículo;SMT/DTP
Trânsito;Ciclovias, ciclofaixas e ciclorrotas;Avaliação da infraestrutura de ciclovias, ciclofaixas e ciclorrotas existentes;CET
Trânsito;Ciclovias, ciclofaixas e ciclorrotas;Avaliação da infraestrutura de ciclovias, ciclofaixas e ciclorrotas existentes;SMPR
Trânsito;Ciclovias, ciclofaixas e ciclorrotas;Avaliação de ciclofaixas de lazer;CET
Trânsito;Ciclovias, ciclofaixas e ciclorrotas;Avaliação de estação existente de bicicletas compartilhadas;CET
Trânsito;Ciclovias, ciclofaixas e ciclorrotas;Implantação de estacionamento de bicicletas na via (paraciclos públicos);CET
Trânsito;Ciclovias, ciclofaixas e ciclorrotas;Manutenção de pintura e sinalização de ciclovias, ciclofaixas e ciclorrotas;AMLURB
Trânsito;Ciclovias, ciclofaixas e ciclorrotas;Manutenção de pintura e sinalização de ciclovias, ciclofaixas e ciclorrotas;CET
Trânsito;Ciclovias, ciclofaixas e ciclorrotas;Manutenção de pintura e sinalização de ciclovias, ciclofaixas e ciclorrotas;ILUME
Trânsito;Ciclovias, ciclofaixas e ciclorrotas;Manutenção de pintura e sinalização de ciclovias, ciclofaixas e ciclorrotas;SMADS
Trânsito;Ciclovias, ciclofaixas e ciclorrotas;Manutenção de pintura e sinalização de ciclovias, ciclofaixas e ciclorrotas;SMPR
Trânsito;Ciclovias, ciclofaixas e ciclorrotas;Manutenção de pintura e sinalização de ciclovias, ciclofaixas e ciclorrotas;SPOBRAS
Trânsito;Ciclovias, ciclofaixas e ciclorrotas;Manutenção de pintura e sinalização de ciclovias, ciclofaixas e ciclorrotas;SPTRANS
Trânsito;Ciclovias, ciclofaixas e ciclorrotas;Manutenção de pintura e sinalização de ciclovias, ciclofaixas e ciclorrotas;SVMA
Trânsito;Ciclovias, ciclofaixas e ciclorrotas;Proposta para implantação de ciclovias, ciclofaixas e ciclorrotas;CET
Trânsito;Ciclovias, ciclofaixas e ciclorrotas;Proposta para implantação de ciclovias, ciclofaixas e ciclorrotas;SMPR
Trânsito;Ciclovias, ciclofaixas e ciclorrotas;Proposta para implantação de nova estação de bicicletas compartilhadas;CET
Trânsito;Circulação de pedestres;Ajuste do tempo de semáforo de pedestres;CET
Trânsito;Circulação de pedestres;Ajuste do tempo de semáforo de pedestres;SMPR
Trânsito;Circulação de pedestres;Avaliação de travessia de pedestres;CET
Trânsito;Circulação de pedestres;Avaliação de travessia de pedestres;SMDHC
Trânsito;Circulação de pedestres;Avaliação de travessia de pedestres;SMPR
Trânsito;Circulação de pedestres;Avaliação de travessia de pedestres;SPTRANS
Trânsito;Circulação de veículos;Avaliação da circulação e acesso de veículos;CET
Trânsito;Circulação de veículos;Avaliação da circulação e acesso de veículos;SMJ
Trânsito;Circulação de veículos;Avaliação da circulação e acesso de veículos;SMPR
Trânsito;Circulação de veículos;Avaliação da circulação e acesso de veículos;SPTRANS
Trânsito;Circulação de veículos;Avaliação da circulação e acesso de veículos;
Trânsito;Circulação de veículos;Avaliação de circulação de caminhão;CET
Trânsito;Circulação de veículos;Avaliação de circulação de caminhão;SPTRANS
Trânsito;Conduta de funcionário da CET;Denúncia de má conduta de funcionário da CET;CET
Trânsito;Conduta de funcionário da CET;Denúncia de má conduta de funcionário da CET;CGM
Trânsito;Conduta de funcionário da CET;Denúncia de má conduta de funcionário da CET;SFMSP
Trânsito;Conduta de funcionário da CET;Denúncia de má conduta de funcionário da CET;SPTRANS
Trânsito;Conduta de funcionário da CET;Elogios de funcionários da CET;CET
Trânsito;Estacionamento Reservado/Preferencial;Criação e ampliação de vagas reservadas em vias públicas;CET
Trânsito;Estacionamento Reservado/Preferencial;Criação e ampliação de vagas reservadas em vias públicas;SMPR
Trânsito;Estacionamento Reservado/Preferencial;Fiscalização da ausência de vagas reservadas em estabelecimento comercial;CET
Trânsito;Estacionamento Reservado/Preferencial;Fiscalização da ausência de vagas reservadas em estabelecimento comercial;SMPR
Trânsito;Estacionamento Reservado/Preferencial;Fiscalização de uso de vaga reservada em estabelecimento comercial;CET
Trânsito;Estacionamento Reservado/Preferencial;Fiscalização de uso de vagas reservadas em vias públicas;CET
Trânsito;Estacionamento Reservado/Preferencial;Fiscalização de uso de vagas reservadas em vias públicas;SMPR
Trânsito;Estacionamento de veículos na via;Análise da proibição de estacionamento na via;CET
Trânsito;Estacionamento de veículos na via;Análise da proibição de estacionamento na via;SMPR
Trânsito;Estacionamento de veículos na via;Criação/ampliação de estacionamento de veículos na via;CET
Trânsito;Estacionamento de veículos na via;Criação/ampliação de estacionamento de veículos na via;SMPR
Trânsito;Estacionamento de veículos na via;Denúncia de reserva irregular de vaga;CET
Trânsito;Estacionamento de veículos na via;Denúncia de reserva irregular de vaga;SMPR
Trânsito;Estacionamento de veículos na via;Desativação/modificação de vaga de estacionamento de veículos na via;CET
Trânsito;Estacionamento de veículos na via;Desativação/modificação de vaga de estacionamento de veículos na via;SMPR
Trânsito;Eventos;Reclamação de eventos na via;CET
Trânsito;Eventos;Reclamação de eventos na via;SMPR
Trânsito;Faixas exclusivas e corredores de ônibus;Estudo em faixas e corredores de ônibus existentes;CET
Trânsito;Faixas exclusivas e corredores de ônibus;Estudo em faixas e corredores de ônibus existentes;SPTRANS
Trânsito;Faixas exclusivas e corredores de ônibus;Estudo para implantação de faixas e corredores de ônibus;CET
Trânsito;Fiscalização de infrações de trânsito;Fiscalização de infração de veículo em movimento;CET
Trânsito;Fiscalização de infrações de trânsito;Fiscalização de infração de veículo em movimento;SMPR
Trânsito;Fiscalização de infrações de trânsito;Fiscalização de infração de veículo em movimento;SPTRANS
Trânsito;Fiscalização de infrações de trânsito;Fiscalização de veículo estacionado/parado em local proibido;CET
Trânsito;Fiscalização de infrações de trânsito;Fiscalização de veículo estacionado/parado em local proibido;CGM
Trânsito;Fiscalização de infrações de trânsito;Fiscalização de veículo estacionado/parado em local proibido;SMPR
Trânsito;Fiscalização de infrações de trânsito;Fiscalização de veículo estacionado/parado em local proibido;SPTRANS
Trânsito;Interferências no trânsito;Aviso de interferências no trânsito;CET
Trânsito;Interferências no trânsito;Aviso de interferências no trânsito;ILUME
Trânsito;Interferências no trânsito;Aviso de interferências no trânsito;SMPR
Trânsito;Interferências no trânsito;Aviso de interferências no trânsito;SPTRANS
Trânsito;Manutenção da sinalização de trânsito;Manutenção de placas de trânsito;CET
Trânsito;Manutenção da sinalização de trânsito;Manutenção de placas de trânsito;SMPR
Trânsito;Manutenção da sinalização de trânsito;Manutenção de placas de trânsito;SPTRANS
Trânsito;Manutenção da sinalização de trânsito;Manutenção de semáforos;CET
Trânsito;Manutenção da sinalização de trânsito;Manutenção de semáforos;SMPR
Trânsito;Manutenção da sinalização de trânsito;Manutenção de sinalização horizontal (pintura de solo);CET
Trânsito;Manutenção da sinalização de trânsito;Manutenção de sinalização horizontal (pintura de solo);SMPR
Trânsito;Manutenção da sinalização de trânsito;Manutenção de sinalização horizontal (pintura de solo);SPTRANS
Trânsito;Obras na via;Autorização para obras/ serviços na via;CET
Trânsito;Obras na via;Autorização para obras/ serviços na via;SMPR
Trânsito;Obras na via;Reclamação de obras na via;CET
Trânsito;Obras na via;Reclamação de obras na via;SMPR
Trânsito;Placas com nome de rua;Instalação de placa com nome de rua;CET
Trânsito;Placas com nome de rua;Instalação de placa com nome de rua;SMPR
Trânsito;Placas com nome de rua;Manutenção de placa com nome de rua;CET
Trânsito;Placas com nome de rua;Manutenção de placa com nome de rua;SMPR
Trânsito;Valets e estacionamentos particulares;Denúncia de valet utilizando via pública como estacionamento;CET
Trânsito;Valets e estacionamentos particulares;Denúncia de valet utilizando via pública como estacionamento;SMPR
Trânsito;Valets e estacionamentos particulares;Fiscalização de estacionamentos particulares;SMPR
Trânsito;Valets e estacionamentos particulares;Fiscalização de valet;CET
Trânsito;Valets e estacionamentos particulares;Fiscalização de valet;SMPR
Trânsito;Veículos abandonados;Remoção de veículo/carcaça abandonado na via pública;SMPR
Trânsito;Zona Azul;Denúncia de irregularidade na venda de talão de zona azul por posto credenciados;CET
Trânsito;Zona Azul;Denúncia de irregularidade na venda de talão de zona azul por posto credenciados;SMPR
